{
  "advisoriesData": {
    "objects": [
      {
        "id": 1513,
        "created": "2020-04-10T14:11:45.993Z",
        "updated": "2020-04-10T14:19:14.686Z",
        "deleted": null,
        "title": "Malicious 󠅮󠅰󠅭Package",
        "found_by": {
          "link": "",
          "name": "Microsoft Vulnerability Research",
          "email": ""
        },
        "reported_by": {
          "link": "",
          "name": "Microsoft Vulnerability Research",
          "email": ""
        },
        "module_name": "m-backdoor",
        "cves": [],
        "vulnerable_versions": ">=0.0.0",
        "patched_versions": "<0.0.0",
        "overview": "All versions of `m-backdoor` contain malicious code. The package downloads a file from a remote server and executes it as a preinstall script. At the time of the release of this advisory the downloaded file only defaces websites by removing elements randomly from the DOM. ",
        "recommendation": "Remove the package from your system.",
        "references": "",
        "access": "public",
        "severity": "critical",
        "cwe": "CWE-506",
        "url": "https://npmjs.com/advisories/1513",
        "formatted": { "created": "Apr 10th, 2020" }
      },
      {
        "id": 1505,
        "created": "2020-04-08T17:48:39.351Z",
        "updated": "2020-04-10T17:59:06.495Z",
        "deleted": null,
        "title": "Timing Attack",
        "found_by": {
          "link": "https://crocs.fi.muni.cz/",
          "name": "Centre for Research on Cryptography and Security at Masaryk University",
          "email": ""
        },
        "reported_by": {
          "link": "https://crocs.fi.muni.cz/",
          "name": "Centre for Research on Cryptography and Security at Masaryk University",
          "email": ""
        },
        "module_name": "jsrsasign",
        "cves": [],
        "vulnerable_versions": "<8.0.13",
        "patched_versions": ">=8.0.13",
        "overview": "Versions of `jsrsasign` are vulnerable to Timing Attacks. The `signHex` function uses a timing-unsafe method for ECDSA key generation and signing. This leaks the length of the scalar, which attackers may use to brute-force the private key. Timing attacks can be used to increase the efficiency of brute-force attacks by removing the exponential increase in entropy gained from longer secrets. This issue only affects the ECDSA functions.",
        "recommendation": "Upgrade to version 8.0.13 or later.",
        "references": "- [GitHub Issue](https://github.com/kjur/jsrsasign/issues/411)\n- [GitHub Release](https://github.com/kjur/jsrsasign/releases/tag/8.0.13)\n- [Snyk Report](https://snyk.io/vuln/SNYK-JS-JSRSASIGN-561755)\n- [Minerva ECDSA timing attacks research](https://minerva.crocs.fi.muni.cz/)",
        "access": "public",
        "severity": "high",
        "cwe": "CWE-208",
        "url": "https://npmjs.com/advisories/1505",
        "formatted": { "created": "Apr 8th, 2020" }
      },
      {
        "id": 1504,
        "created": "2020-04-07T22:18:31.286Z",
        "updated": "2020-04-07T22:18:31.286Z",
        "deleted": null,
        "title": "Buffer Overflow",
        "found_by": { "link": "", "name": "Velithris", "email": "" },
        "reported_by": { "link": "", "name": "Velithris", "email": "" },
        "module_name": "node-weakauras-parser",
        "cves": [],
        "vulnerable_versions": ">=1.0.4 <1.0.5 || >=2.0.0 <2.0.2 || >=3.0.0 <3.0.1",
        "patched_versions": ">=1.0.5 <2.0.0 || >=2.0.2 <3.0.0 || >=3.0.1",
        "overview": "Affected versions of `node-weakauras-parser` are vulnerable to a Buffer Overflow. The `encode_weakaura` function fails to properly validate the input size. A buffer of 13835058055282163711 bytes causes an overflow on 64-bit systems.",
        "recommendation": "Upgrade to versions 1.0.5, 2.0.2, 3.0.1 or later.",
        "references": "- [GitHub commit](https://github.com/Zireael-N/node-weakauras-parser/commit/bc146da09db689e554d28e948f1cf1c138f09f69#diff-023afe6291ac9ada88788108cb3367b3R38-R43)",
        "access": "public",
        "severity": "moderate",
        "cwe": "CWE-120",
        "url": "https://npmjs.com/advisories/1504",
        "formatted": { "created": "Apr 7th, 2020" }
      },
      {
        "id": 1494,
        "created": "2020-03-20T14:15:10.038Z",
        "updated": "2020-03-26T17:28:53.738Z",
        "deleted": null,
        "title": "Path Traversal",
        "found_by": { "link": "", "name": "Andrea Villa", "email": "" },
        "reported_by": { "link": "", "name": "Andrea Villa", "email": "" },
        "module_name": "sapper",
        "cves": [],
        "vulnerable_versions": "<0.27.11",
        "patched_versions": ">=0.27.11",
        "overview": "Versions of `sapper` prior to 0.27.11 are vulnerable to Path Traversal. It is possible to access sensitive files on the server through HTTP requests containing URL-encoded `../`.  \n\nYou may test a `sapper` application running in prod mode with `curl -vvv http://localhost:3000/client/750af05c3a69ddc6073a/%252e%252e/%252e%252e/%252e%252e/%252e%252e/%252e%252e/%252e%252e/%252e%252e/%252e%252e/etc/passwd`.",
        "recommendation": "Upgrade to version 0.27.11 or later.",
        "references": "",
        "access": "public",
        "severity": "critical",
        "cwe": "CWE-23",
        "url": "https://npmjs.com/advisories/1494",
        "formatted": { "created": "Mar 20th, 2020" }
      },
      {
        "id": 1490,
        "created": "2020-03-06T21:22:12.305Z",
        "updated": "2020-03-09T14:12:20.619Z",
        "deleted": null,
        "title": "Validation Bypass",
        "found_by": { "link": "", "name": "Feng Xiao", "email": "" },
        "reported_by": { "link": "", "name": "Feng Xiao", "email": "" },
        "module_name": "kind-of",
        "cves": [],
        "vulnerable_versions": ">=6.0.0 <6.0.3",
        "patched_versions": ">=6.0.3",
        "overview": "Versions of `kind-of` 6.x prior to 6.0.3 are vulnerable to a Validation Bypass. A maliciously crafted object can alter the result of the type check, allowing attackers to bypass the type checking validation. ",
        "recommendation": "Upgrade to versions 6.0.3 or later.",
        "references": "- [GitHub issue](https://github.com/jonschlinkert/kind-of/issues/30)",
        "access": "public",
        "severity": "low",
        "cwe": "CWE-20",
        "url": "https://npmjs.com/advisories/1490",
        "formatted": { "created": "Mar 6th, 2020" }
      },
      {
        "id": 1488,
        "created": "2020-03-02T19:21:25.485Z",
        "updated": "2020-03-10T17:44:45.038Z",
        "deleted": null,
        "title": "Regular Expression Denial of Service",
        "found_by": { "link": "", "name": "Peter van der Zee", "email": "" },
        "reported_by": { "link": "", "name": "Peter van der Zee", "email": "" },
        "module_name": "acorn",
        "cves": [],
        "vulnerable_versions": ">=5.5.0 <5.7.4 || >=6.0.0 <6.4.1 || >=7.0.0 <7.1.1",
        "patched_versions": ">=5.7.4 <6.0.0 || >=6.4.1 <7.0.0 || >=7.1.1",
        "overview": "Affected versions of `acorn` are vulnerable to Regular Expression Denial of Service. A regex in the form of `/[x-\\ud800]/u` causes the parser to enter an infinite loop. The string is not valid UTF16 which usually results in it being sanitized before reaching the parser. If an application processes untrusted input and passes it directly to `acorn`, attackers may leverage the vulnerability leading to Denial of Service.",
        "recommendation": "Upgrade to versions 5.7.4, 6.4.1, 7.1.1 or later.",
        "references": "",
        "access": "public",
        "severity": "moderate",
        "cwe": "CWE-400",
        "url": "https://npmjs.com/advisories/1488",
        "formatted": { "created": "Mar 2nd, 2020" }
      },
      {
        "id": 1487,
        "created": "2020-02-28T14:00:55.729Z",
        "updated": "2020-02-28T14:01:02.172Z",
        "deleted": null,
        "title": "Improper Authorization",
        "found_by": { "link": "", "name": "Matthew Huang", "email": "" },
        "reported_by": { "link": "", "name": "Matthew Huang", "email": "" },
        "module_name": "react-oauth-flow",
        "cves": [],
        "vulnerable_versions": ">=0.0.0",
        "patched_versions": "<0.0.0",
        "overview": "All versions of `react-oauth-flow` fail to properly implement the OAuth protocol. The package stores secrets in the front-end code. Instead of using a public OAuth client, it uses a confidential client on the browser. This may allow attackers to compromise server credentials.",
        "recommendation": "No fix is currently available. Consider using an alternative module until a fix is made available.",
        "references": "- [GitHub Issue](https://github.com/ethereum/web3.js/issues/2739)",
        "access": "public",
        "severity": "critical",
        "cwe": "CWE-255",
        "url": "https://npmjs.com/advisories/1487",
        "formatted": { "created": "Feb 28th, 2020" }
      },
      {
        "id": 1484,
        "created": "2020-02-17T14:33:20.278Z",
        "updated": "2020-02-18T17:57:33.206Z",
        "deleted": null,
        "title": "Prototype Pollution",
        "found_by": { "link": "", "name": "Eran Hammer", "email": "" },
        "reported_by": { "link": "", "name": "Eran Hammer", "email": "" },
        "module_name": "@commercial/subtext",
        "cves": [],
        "vulnerable_versions": "<5.1.2",
        "patched_versions": ">=5.1.2",
        "overview": "Versions of `@commercial/subtext` prior to 5.1.2 are vulnerable to Prototype Pollution. A multipart payload can be constructed in a way that one of the parts’ content can be set as the entire payload object’s prototype. If this prototype contains data, it may bypass other validation rules which enforce access and privacy. If this prototype evaluates to null, it can cause unhandled exceptions when the request payload is accessed.",
        "recommendation": "Upgrade to version 5.1.2 or later.",
        "references": "",
        "access": "public",
        "severity": "high",
        "cwe": "CWE-400",
        "url": "https://npmjs.com/advisories/1484",
        "formatted": { "created": "Feb 17th, 2020" }
      },
      {
        "id": 1483,
        "created": "2020-02-17T14:19:59.151Z",
        "updated": "2020-02-18T17:57:57.912Z",
        "deleted": null,
        "title": "Denial of Service",
        "found_by": { "link": "", "name": "Eran Hammer", "email": "" },
        "reported_by": { "link": "", "name": "Eran Hammer", "email": "" },
        "module_name": "@commercial/hapi",
        "cves": [],
        "vulnerable_versions": "<16.8.2 || >=17.0.0 <17.9.2 || >=18.0.0 <18.4.1 || >=19.0.0 <19.1.1",
        "patched_versions": ">=16.8.2 <17.0.0 || >=17.9.2 <18.0.0 || >=18.4.1 <19.0.0 || >=19.1.1",
        "overview": "Affected versions of `@commercial/hapi` are vulnerable to Denial of Service. The CORS request handler has a vulnerability which will cause the function to throw a system error if the header contains some invalid values. If no unhandled exception handler is available, the application will exist, allowing an attacker to shut down services.",
        "recommendation": "Upgrade to versions 16.8.2, 17.9.2, 18.4.1, 19.1.1 or later.",
        "references": "",
        "access": "public",
        "severity": "high",
        "cwe": "CWE-471",
        "url": "https://npmjs.com/advisories/1483",
        "formatted": { "created": "Feb 17th, 2020" }
      },
      {
        "id": 1482,
        "created": "2020-02-17T14:16:07.012Z",
        "updated": "2020-02-18T17:58:19.828Z",
        "deleted": null,
        "title": "Denial of Service",
        "found_by": { "link": "", "name": "Eran Hammer", "email": "" },
        "reported_by": { "link": "", "name": "Eran Hammer", "email": "" },
        "module_name": "@hapi/hapi",
        "cves": [],
        "vulnerable_versions": "<18.4.1 || >=19.0.0 <19.1.1",
        "patched_versions": ">=18.4.1 <19.0.0 || >=19.1.1",
        "overview": "Versions of `@hapi/hapi` prior to 18.4.1 or 19.1.1 are vulnerable to Denial of Service. The CORS request handler has a vulnerability which will cause the function to throw a system error if the header contains some invalid values. If no unhandled exception handler is available, the application will exist, allowing an attacker to shut down services.",
        "recommendation": "Upgrade to versions 18.4.1, 19.1.1 or later.",
        "references": "",
        "access": "public",
        "severity": "high",
        "cwe": "CWE-471",
        "url": "https://npmjs.com/advisories/1482",
        "formatted": { "created": "Feb 17th, 2020" }
      },
      {
        "id": 1481,
        "created": "2020-02-17T14:05:15.439Z",
        "updated": "2020-02-18T17:58:39.871Z",
        "deleted": null,
        "title": "Denial of Service",
        "found_by": { "link": "", "name": "Eran Hammer", "email": "" },
        "reported_by": { "link": "", "name": "Eran Hammer", "email": "" },
        "module_name": "hapi",
        "cves": [],
        "vulnerable_versions": ">=0.0.0",
        "patched_versions": "<0.0.0",
        "overview": "All Versions of `hapi` are vulnerable to Denial of Service. The CORS request handler has a vulnerability which will cause the function to throw a system error if the header contains some invalid values. If no unhandled exception handler is available, the application will exist, allowing an attacker to shut down services.",
        "recommendation": "This package is deprecated and is now maintained as `@hapi/hapi`. Please update your dependencies to use `@hapi/hapi`. ",
        "references": "",
        "access": "public",
        "severity": "high",
        "cwe": "CWE-471",
        "url": "https://npmjs.com/advisories/1481",
        "formatted": { "created": "Feb 17th, 2020" }
      },
      {
        "id": 1480,
        "created": "2020-02-17T14:02:07.544Z",
        "updated": "2020-02-18T17:58:52.705Z",
        "deleted": null,
        "title": "Prototype Pollution",
        "found_by": { "link": "", "name": "Eran Hammer", "email": "" },
        "reported_by": { "link": "", "name": "Eran Hammer", "email": "" },
        "module_name": "@hapi/subtext",
        "cves": [],
        "vulnerable_versions": "<6.1.3 || >=7.0.0 <7.0.3",
        "patched_versions": ">=6.1.3 <7.0.0 || >=7.0.3",
        "overview": "Versions of `@hapi/subtext` prior to 6.1.3 or 7.0.3 are vulnerable to Prototype Pollution. A multipart payload can be constructed in a way that one of the parts’ content can be set as the entire payload object’s prototype. If this prototype contains data, it may bypass other validation rules which enforce access and privacy. If this prototype evaluates to null, it can cause unhandled exceptions when the request payload is accessed.",
        "recommendation": "Upgrade to versions 6.1.3, 7.0.3 or later.",
        "references": "",
        "access": "public",
        "severity": "high",
        "cwe": "CWE-400",
        "url": "https://npmjs.com/advisories/1480",
        "formatted": { "created": "Feb 17th, 2020" }
      },
      {
        "id": 1479,
        "created": "2020-02-17T13:59:16.127Z",
        "updated": "2020-02-18T17:59:10.362Z",
        "deleted": null,
        "title": "Prototype Pollution",
        "found_by": { "link": "", "name": "Eran Hammer", "email": "" },
        "reported_by": { "link": "", "name": "Eran Hammer", "email": "" },
        "module_name": "subtext",
        "cves": [],
        "vulnerable_versions": ">=0.0.0",
        "patched_versions": "<0.0.0",
        "overview": "All versions of `subtext` are vulnerable to Prototype Pollution. A multipart payload can be constructed in a way that one of the parts’ content can be set as the entire payload object’s prototype. If this prototype contains data, it may bypass other validation rules which enforce access and privacy. If this prototype evaluates to null, it can cause unhandled exceptions when the request payload is accessed.",
        "recommendation": "This package is deprecated and is now maintained as `@hapi/subtext`. Please update your dependencies to use `@hapi/subtext`. ",
        "references": "",
        "access": "public",
        "severity": "high",
        "cwe": "CWE-400",
        "url": "https://npmjs.com/advisories/1479",
        "formatted": { "created": "Feb 17th, 2020" }
      },
      {
        "id": 1478,
        "created": "2020-02-17T13:49:54.470Z",
        "updated": "2020-02-18T17:59:35.722Z",
        "deleted": null,
        "title": "Denial of Service",
        "found_by": { "link": "", "name": "Eran Hammer", "email": "" },
        "reported_by": { "link": "", "name": "Eran Hammer", "email": "" },
        "module_name": "subtext",
        "cves": [],
        "vulnerable_versions": ">=4.1.0",
        "patched_versions": "<0.0.0",
        "overview": "Versions of `subtext` >=4.1.0 are vulnerable to Denial of Service. The Content-Encoding HTTP header parser has a vulnerability which will cause the function to throw a system error if the header contains some invalid values. Because hapi rethrows system errors (as opposed to catching expected application errors), the error is thrown all the way up the stack. If no unhandled exception handler is available, the application will exist, allowing an attacker to shut down services.",
        "recommendation": "This package is deprecated and is now maintained as `@hapi/subtext`. Please update your dependencies to use `@hapi/subtext`. ",
        "references": "",
        "access": "public",
        "severity": "high",
        "cwe": "CWE-400",
        "url": "https://npmjs.com/advisories/1478",
        "formatted": { "created": "Feb 17th, 2020" }
      },
      {
        "id": 1477,
        "created": "2020-02-17T13:47:56.159Z",
        "updated": "2020-02-18T18:00:11.935Z",
        "deleted": null,
        "title": "Denial of Service",
        "found_by": { "link": "", "name": "Eran Hammer", "email": "" },
        "reported_by": { "link": "", "name": "Eran Hammer", "email": "" },
        "module_name": "@commercial/subtext",
        "cves": [],
        "vulnerable_versions": "5.1.1",
        "patched_versions": ">=5.1.2",
        "overview": "Version 5.1.1 of `@commercial/subtext` is vulnerable to Denial of Service. The Content-Encoding HTTP header parser has a vulnerability which will cause the function to throw a system error if the header contains some invalid values. Because hapi rethrows system errors (as opposed to catching expected application errors), the error is thrown all the way up the stack. If no unhandled exception handler is available, the application will exist, allowing an attacker to shut down services.",
        "recommendation": "Upgrade to version 5.1.2 or later.",
        "references": "",
        "access": "public",
        "severity": "high",
        "cwe": "CWE-400",
        "url": "https://npmjs.com/advisories/1477",
        "formatted": { "created": "Feb 17th, 2020" }
      },
      {
        "id": 1476,
        "created": "2020-02-17T13:39:01.390Z",
        "updated": "2020-02-18T18:00:29.843Z",
        "deleted": null,
        "title": "Denial of Service",
        "found_by": { "link": "", "name": "Eran Hammer", "email": "" },
        "reported_by": { "link": "", "name": "Eran Hammer", "email": "" },
        "module_name": "@hapi/subtext",
        "cves": [],
        "vulnerable_versions": ">=4.1.0 <6.1.3 || >= 7.0.0 <7.0.3",
        "patched_versions": ">=6.1.3 <7.0.0 || >=7.0.3",
        "overview": "Versions of `@hapi/subtext` prior to 6.1.3 or 7.0.3 are vulnerable to Denial of Service. The Content-Encoding HTTP header parser has a vulnerability which will cause the function to throw a system error if the header contains some invalid values. Because hapi rethrows system errors (as opposed to catching expected application errors), the error is thrown all the way up the stack. If no unhandled exception handler is available, the application will exist, allowing an attacker to shut down services.",
        "recommendation": "Upgrade to version 6.1.3 or 7.0.3",
        "references": "",
        "access": "public",
        "severity": "high",
        "cwe": "CWE-400",
        "url": "https://npmjs.com/advisories/1476",
        "formatted": { "created": "Feb 17th, 2020" }
      },
      {
        "id": 1475,
        "created": "2020-02-17T13:24:10.515Z",
        "updated": "2020-02-17T14:25:41.863Z",
        "deleted": null,
        "title": "Denial of Service",
        "found_by": {
          "link": "",
          "name": "Gal Goldshtein (F5 Networks)",
          "email": ""
        },
        "reported_by": {
          "link": "",
          "name": "Gal Goldshtein (F5 Networks)",
          "email": ""
        },
        "module_name": "@hapi/accept",
        "cves": [],
        "vulnerable_versions": ">=3.2.0 <3.2.4 || >=4.0.0 <5.0.1",
        "patched_versions": ">=3.2.4 <4.0.0 || >=5.0.1",
        "overview": "Versions of `@hapi/accept` prior to 3.2.4 or 5.0.1 are vulnerable to Denial of Service. The Accept-Encoding HTTP header parser has a vulnerability which will cause the function to throw a system error if the header contains some invalid values. Because hapi rethrows system errors (as opposed to catching expected application errors), the error is thrown all the way up the stack. If no unhandled exception handler is available, the application will exist, allowing an attacker to shut down services.",
        "recommendation": "Upgrade to version 3.2.4 or 5.0.1.",
        "references": "",
        "access": "public",
        "severity": "high",
        "cwe": "CWE-400",
        "url": "https://npmjs.com/advisories/1475",
        "formatted": { "created": "Feb 17th, 2020" }
      },
      {
        "id": 1474,
        "created": "2020-02-17T12:18:49.342Z",
        "updated": "2020-02-17T14:24:32.123Z",
        "deleted": null,
        "title": "Denial of Service",
        "found_by": {
          "link": "",
          "name": "Gal Goldshtein (F5 Networks)",
          "email": ""
        },
        "reported_by": {
          "link": "",
          "name": "Gal Goldshtein (F5 Networks)",
          "email": ""
        },
        "module_name": "@hapi/ammo",
        "cves": [],
        "vulnerable_versions": "<3.1.2 || >=4.0.0 <5.0.1",
        "patched_versions": ">=3.1.2 <4.0.0 || >=5.0.1",
        "overview": "Versions of `@hapi/ammo` prior to 3.1.2 or 5.0.1 are vulnerable to Denial of Service. The Range HTTP header parser has a vulnerability which will cause the function to throw a system error if the header is set to an invalid value. Because hapi is not expecting the function to ever throw, the error is thrown all the way up the stack. If no unhandled exception handler is available, the application will exist, allowing an attacker to shut down services.",
        "recommendation": "Upgrade to version 3.1.2 or 5.0.1.",
        "references": "",
        "access": "public",
        "severity": "high",
        "cwe": "CWE-400",
        "url": "https://npmjs.com/advisories/1474",
        "formatted": { "created": "Feb 17th, 2020" }
      },
      {
        "id": 1473,
        "created": "2020-02-17T12:15:57.880Z",
        "updated": "2020-02-17T14:24:01.744Z",
        "deleted": null,
        "title": "Denial of Service",
        "found_by": {
          "link": "",
          "name": "Gal Goldshtein (F5 Networks)",
          "email": ""
        },
        "reported_by": {
          "link": "",
          "name": "Gal Goldshtein (F5 Networks)",
          "email": ""
        },
        "module_name": "@commercial/ammo",
        "cves": [],
        "vulnerable_versions": "<2.1.1",
        "patched_versions": ">=2.1.1",
        "overview": "Versions of `@commercial/ammo` prior to 2.1.1 are vulnerable to Denial of Service. The Range HTTP header parser has a vulnerability which will cause the function to throw a system error if the header is set to an invalid value. Because hapi is not expecting the function to ever throw, the error is thrown all the way up the stack. If no unhandled exception handler is available, the application will exist, allowing an attacker to shut down services.",
        "recommendation": "Upgrade to version 2.1.1 or later.",
        "references": "",
        "access": "public",
        "severity": "high",
        "cwe": "CWE-400",
        "url": "https://npmjs.com/advisories/1473",
        "formatted": { "created": "Feb 17th, 2020" }
      },
      {
        "id": 1472,
        "created": "2020-02-17T12:14:40.657Z",
        "updated": "2020-02-17T14:23:37.474Z",
        "deleted": null,
        "title": "Denial of Service",
        "found_by": {
          "link": "",
          "name": "Gal Goldshtein (F5 Networks)",
          "email": ""
        },
        "reported_by": {
          "link": "",
          "name": "Gal Goldshtein (F5 Networks)",
          "email": ""
        },
        "module_name": "ammo",
        "cves": [],
        "vulnerable_versions": ">=0.0.0",
        "patched_versions": "<0.0.0",
        "overview": "All versions of `ammo` are vulnerable to Denial of Service. The Range HTTP header parser has a vulnerability which will cause the function to throw a system error if the header is set to an invalid value. Because hapi is not expecting the function to ever throw, the error is thrown all the way up the stack. If no unhandled exception handler is available, the application will exist, allowing an attacker to shut down services.",
        "recommendation": "This package is deprecated and is now maintained as `@hapi/ammo`. Please update your dependencies to use `@hapi/ammo`. ",
        "references": "",
        "access": "public",
        "severity": "high",
        "cwe": "CWE-400",
        "url": "https://npmjs.com/advisories/1472",
        "formatted": { "created": "Feb 17th, 2020" }
      }
    ],
    "total": 1344,
    "urls": { "next": "/v1/advisories/?page=1&perPage=20&order=-id" }
  },
  "pagination": { "perPage": 20, "page": 0 },
  "user": null,
  "csrftoken": "weuYho8FD3YhoEsP7B-ThWVQFcK5ZOwZoL78ZA9rkk_",
  "notifications": [],
  "npmExpansions": [
    "Neapolitan Pasta Maker",
    "Nobody Picked Me",
    "Nachos Pillage Milwaukee",
    "Nary a Package Missing",
    "Nanometers Per Millisecond",
    "No, Pay Me",
    "Nutty Peanut Marshmallow",
    "Newline Proliferating Maniac",
    "Nerdiest Precious Modules",
    "New Power Management"
  ],
  "isNpme": false
}
